%YAML 1.1
%TAG !u! tag:unity3d.com,2011:
--- !u!74 &7400000
AnimationClip:
  m_ObjectHideFlags: 0
  m_CorrespondingSourceObject: {fileID: 0}
  m_PrefabInstance: {fileID: 0}
  m_PrefabAsset: {fileID: 0}
  m_Name: explosion
  serializedVersion: 6
  m_Legacy: 0
  m_Compressed: 0
  m_UseHighQualityCurve: 1
  m_RotationCurves: []
  m_CompressedRotationCurves: []
  m_EulerCurves: []
  m_PositionCurves: []
  m_ScaleCurves: []
  m_FloatCurves: []
  m_PPtrCurves:
  - curve:
    - time: 0
      value: {fileID: 21300000, guid: 9d5eb6a7168c5b345bcb121d4742783d, type: 3}
    - time: 0.083333336
      value: {fileID: 21300000, guid: cfc9e14fe0600994ba51365c178b6b54, type: 3}
    - time: 0.16666667
      value: {fileID: 21300000, guid: f5b3f718d04806c4f95d7597f72dbba1, type: 3}
    - time: 0.25
      value: {fileID: 21300000, guid: f52302b5f7dc8f94c9a498eda6d2a7a0, type: 3}
    - time: 0.33333334
      value: {fileID: 21300000, guid: e16c213fd89017541abe8f557e51ed0e, type: 3}
    - time: 0.41666666
      value: {fileID: 21300000, guid: 87897373f1b8a1b4b85c1e23c1a70988, type: 3}
    - time: 0.5
      value: {fileID: 21300000, guid: 793356b277214ed4093f3702b9f0ead8, type: 3}
    - time: 0.5833333
      value: {fileID: 21300000, guid: 96942027ce0e0954ca386b94c6622275, type: 3}
    - time: 0.6666667
      value: {fileID: 21300000, guid: d20664d226ce39747a87931967b4a9ab, type: 3}
    - time: 0.75
      value: {fileID: 21300000, guid: dd504d73ed8c6164cab6a11a19f65a2f, type: 3}
    - time: 0.8333333
      value: {fileID: 21300000, guid: 8ea103b7e8986ca4aae6b91d73c4c820, type: 3}
    - time: 1
      value: {fileID: 21300000, guid: a4243f1be264d1641a602d69d57f729c, type: 3}
    attribute: m_Sprite
    path: 
    classID: 212
    script: {fileID: 0}
  m_SampleRate: 12
  m_WrapMode: 0
  m_Bounds:
    m_Center: {x: 0, y: 0, z: 0}
    m_Extent: {x: 0, y: 0, z: 0}
  m_ClipBindingConstant:
    genericBindings:
    - serializedVersion: 2
      path: 0
      attribute: 0
      script: {fileID: 0}
      typeID: 212
      customType: 23
      isPPtrCurve: 1
    pptrCurveMapping:
    - {fileID: 21300000, guid: 9d5eb6a7168c5b345bcb121d4742783d, type: 3}
    - {fileID: 21300000, guid: cfc9e14fe0600994ba51365c178b6b54, type: 3}
    - {fileID: 21300000, guid: f5b3f718d04806c4f95d7597f72dbba1, type: 3}
    - {fileID: 21300000, guid: f52302b5f7dc8f94c9a498eda6d2a7a0, type: 3}
    - {fileID: 21300000, guid: e16c213fd89017541abe8f557e51ed0e, type: 3}
    - {fileID: 21300000, guid: 87897373f1b8a1b4b85c1e23c1a70988, type: 3}
    - {fileID: 21300000, guid: 793356b277214ed4093f3702b9f0ead8, type: 3}
    - {fileID: 21300000, guid: 96942027ce0e0954ca386b94c6622275, type: 3}
    - {fileID: 21300000, guid: d20664d226ce39747a87931967b4a9ab, type: 3}
    - {fileID: 21300000, guid: dd504d73ed8c6164cab6a11a19f65a2f, type: 3}
    - {fileID: 21300000, guid: 8ea103b7e8986ca4aae6b91d73c4c820, type: 3}
    - {fileID: 21300000, guid: a4243f1be264d1641a602d69d57f729c, type: 3}
  m_AnimationClipSettings:
    serializedVersion: 2
    m_AdditiveReferencePoseClip: {fileID: 0}
    m_AdditiveReferencePoseTime: 0
    m_StartTime: 0
    m_StopTime: 1.0833334
    m_OrientationOffsetY: 0
    m_Level: 0
    m_CycleOffset: 0
    m_HasAdditiveReferencePose: 0
    m_LoopTime: 1
    m_LoopBlend: 0
    m_LoopBlendOrientation: 0
    m_LoopBlendPositionY: 0
    m_LoopBlendPositionXZ: 0
    m_KeepOriginalOrientation: 0
    m_KeepOriginalPositionY: 1
    m_KeepOriginalPositionXZ: 0
    m_HeightFromFeet: 0
    m_Mirror: 0
  m_EditorCurves: []
  m_EulerEditorCurves: []
  m_HasGenericRootTransform: 0
  m_HasMotionFloatCurves: 0
  m_Events: []
